Project-week-12.utf8
…
## Showing the outliers in our Area Income column

boxplot.stats(area)$out

## [1] 17709.98 18819.34 15598.29 15879.10 14548.06 13996.50 14775.50 18368.57

## All our outliers are income values less than 20,000

## Dropping the outliers in our data

data <- subset(advertising,`Area Income` > 19000)

data

## # A tibble: 992 x 10
##    `Daily Time Spe~   Age `Area Income` `Daily Internet~ `Ad Topic Line` City 
##               <dbl> <dbl>         <dbl>            <dbl> <chr>           <chr>
##  1             69.0    35        61834.             256. Cloned 5thgene~ Wrig~
##  2             80.2    31        68442.             194. Monitored nati~ West~
##  3             69.5    26        59786.             236. Organic bottom~ Davi~
##  4             74.2    29        54806.             246. Triple-buffere~ West~
##  5             68.4    35        73890.             226. Robust logisti~ Sout~
##  6             60.0    23        59762.             227. Sharable clien~ Jami~
##  7             88.9    33        53853.             208. Enhanced dedic~ Bran~
##  8             66      48        24593.             132. Reactive local~ Port~
##  9             74.5    30        68862              222. Configurable c~ West~
## 10             69.9    20        55642.             184. Mandatory homo~ Rami~
## # ... with 982 more rows, and 4 more variables: Male <dbl>, Country <chr>,
## #   Timestamp <dttm>, `Clicked on Ad` <dbl>
…
### Converting our variable into a categorical values

data$`Clicked on Ad` <- factor(data$`Clicked on Ad`, levels = c("False", "True"), labels = c(0,1))

## Dropping the outliers in our data

data <- subset(advertising,`Area Income` > 19000)

data

## # A tibble: 992 x 10
##    `Daily Time Spe~   Age `Area Income` `Daily Internet~ `Ad Topic Line` City 
##               <dbl> <dbl>         <dbl>            <dbl> <chr>           <chr>
##  1             69.0    35        61834.             256. Cloned 5thgene~ Wrig~
##  2             80.2    31        68442.             194. Monitored nati~ West~
##  3             69.5    26        59786.             236. Organic bottom~ Davi~
##  4             74.2    29        54806.             246. Triple-buffere~ West~
##  5             68.4    35        73890.             226. Robust logisti~ Sout~
##  6             60.0    23        59762.             227. Sharable clien~ Jami~
##  7             88.9    33        53853.             208. Enhanced dedic~ Bran~
##  8             66      48        24593.             132. Reactive local~ Port~
##  9             74.5    30        68862              222. Configurable c~ West~
## 10             69.9    20        55642.             184. Mandatory homo~ Rami~
## # ... with 982 more rows, and 4 more variables: Male <dbl>, Country <chr>,
## #   Timestamp <dttm>, `Clicked on Ad` <dbl>
…
